{
  "formatVersion": 1,
  "database": {
    "version": 5,
    "identityHash": "9aafc2131267ec67fa1d6c8c49980444",
    "entities": [
      {
        "tableName": "Customer",
        "createSql": "CREATE TABLE IF NOT EXISTS `${TABLE_NAME}` (`idCustomer` INTEGER PRIMARY KEY AUTOINCREMENT NOT NULL, `name` TEXT NOT NULL, `phoneNumber` TEXT NOT NULL, `createdAt` TEXT NOT NULL, `updatedAt` TEXT NOT NULL)",
        "fields": [
          {
            "fieldPath": "idCustomer",
            "columnName": "idCustomer",
            "affinity": "INTEGER",
            "notNull": true
          },
          {
            "fieldPath": "name",
            "columnName": "name",
            "affinity": "TEXT",
            "notNull": true
          },
          {
            "fieldPath": "phoneNumber",
            "columnName": "phoneNumber",
            "affinity": "TEXT",
            "notNull": true
          },
          {
            "fieldPath": "createdAt",
            "columnName": "createdAt",
            "affinity": "TEXT",
            "notNull": true
          },
          {
            "fieldPath": "updatedAt",
            "columnName": "updatedAt",
            "affinity": "TEXT",
            "notNull": true
          }
        ],
        "primaryKey": {
          "columnNames": [
            "idCustomer"
          ],
          "autoGenerate": true
        },
        "indices": [],
        "foreignKeys": []
      },
      {
        "tableName": "Order",
        "createSql": "CREATE TABLE IF NOT EXISTS `${TABLE_NAME}` (`idOrder` INTEGER PRIMARY KEY AUTOINCREMENT, `idCustomer` INTEGER, `idUser` INTEGER, `totalPayAmount` INTEGER NOT NULL, `tax` REAL NOT NULL, `actualPayAmount` INTEGER NOT NULL, `createdAt` TEXT NOT NULL, `updatedAt` TEXT NOT NULL, `completed` INTEGER NOT NULL, FOREIGN KEY(`idCustomer`) REFERENCES `Customer`(`idCustomer`) ON UPDATE CASCADE ON DELETE NO ACTION )",
        "fields": [
          {
            "fieldPath": "idOrder",
            "columnName": "idOrder",
            "affinity": "INTEGER",
            "notNull": false
          },
          {
            "fieldPath": "idCustomer",
            "columnName": "idCustomer",
            "affinity": "INTEGER",
            "notNull": false
          },
          {
            "fieldPath": "idUser",
            "columnName": "idUser",
            "affinity": "INTEGER",
            "notNull": false
          },
          {
            "fieldPath": "totalPayAmount",
            "columnName": "totalPayAmount",
            "affinity": "INTEGER",
            "notNull": true
          },
          {
            "fieldPath": "tax",
            "columnName": "tax",
            "affinity": "REAL",
            "notNull": true
          },
          {
            "fieldPath": "actualPayAmount",
            "columnName": "actualPayAmount",
            "affinity": "INTEGER",
            "notNull": true
          },
          {
            "fieldPath": "createdAt",
            "columnName": "createdAt",
            "affinity": "TEXT",
            "notNull": true
          },
          {
            "fieldPath": "updatedAt",
            "columnName": "updatedAt",
            "affinity": "TEXT",
            "notNull": true
          },
          {
            "fieldPath": "completed",
            "columnName": "completed",
            "affinity": "INTEGER",
            "notNull": true
          }
        ],
        "primaryKey": {
          "columnNames": [
            "idOrder"
          ],
          "autoGenerate": true
        },
        "indices": [
          {
            "name": "index_Order_idCustomer",
            "unique": false,
            "columnNames": [
              "idCustomer"
            ],
            "createSql": "CREATE  INDEX `index_Order_idCustomer` ON `${TABLE_NAME}` (`idCustomer`)"
          }
        ],
        "foreignKeys": [
          {
            "table": "Customer",
            "onDelete": "NO ACTION",
            "onUpdate": "CASCADE",
            "columns": [
              "idCustomer"
            ],
            "referencedColumns": [
              "idCustomer"
            ]
          }
        ]
      },
      {
        "tableName": "OrderItem",
        "createSql": "CREATE TABLE IF NOT EXISTS `${TABLE_NAME}` (`idOrderItem` INTEGER PRIMARY KEY AUTOINCREMENT, `idOrder` INTEGER, `idProduct` INTEGER, `idCustomer` INTEGER, `name` TEXT NOT NULL, `quantity` INTEGER NOT NULL, `price` INTEGER NOT NULL, `createdAt` TEXT NOT NULL, `updatedAt` TEXT NOT NULL, FOREIGN KEY(`idOrder`) REFERENCES `Order`(`idOrder`) ON UPDATE CASCADE ON DELETE NO ACTION , FOREIGN KEY(`idProduct`) REFERENCES `Product`(`idProduct`) ON UPDATE CASCADE ON DELETE NO ACTION , FOREIGN KEY(`idCustomer`) REFERENCES `Customer`(`idCustomer`) ON UPDATE CASCADE ON DELETE NO ACTION )",
        "fields": [
          {
            "fieldPath": "idOrderItem",
            "columnName": "idOrderItem",
            "affinity": "INTEGER",
            "notNull": false
          },
          {
            "fieldPath": "idOrder",
            "columnName": "idOrder",
            "affinity": "INTEGER",
            "notNull": false
          },
          {
            "fieldPath": "idProduct",
            "columnName": "idProduct",
            "affinity": "INTEGER",
            "notNull": false
          },
          {
            "fieldPath": "idCustomer",
            "columnName": "idCustomer",
            "affinity": "INTEGER",
            "notNull": false
          },
          {
            "fieldPath": "name",
            "columnName": "name",
            "affinity": "TEXT",
            "notNull": true
          },
          {
            "fieldPath": "quantity",
            "columnName": "quantity",
            "affinity": "INTEGER",
            "notNull": true
          },
          {
            "fieldPath": "price",
            "columnName": "price",
            "affinity": "INTEGER",
            "notNull": true
          },
          {
            "fieldPath": "createdAt",
            "columnName": "createdAt",
            "affinity": "TEXT",
            "notNull": true
          },
          {
            "fieldPath": "updatedAt",
            "columnName": "updatedAt",
            "affinity": "TEXT",
            "notNull": true
          }
        ],
        "primaryKey": {
          "columnNames": [
            "idOrderItem"
          ],
          "autoGenerate": true
        },
        "indices": [
          {
            "name": "index_OrderItem_idCustomer",
            "unique": false,
            "columnNames": [
              "idCustomer"
            ],
            "createSql": "CREATE  INDEX `index_OrderItem_idCustomer` ON `${TABLE_NAME}` (`idCustomer`)"
          },
          {
            "name": "index_OrderItem_idProduct",
            "unique": false,
            "columnNames": [
              "idProduct"
            ],
            "createSql": "CREATE  INDEX `index_OrderItem_idProduct` ON `${TABLE_NAME}` (`idProduct`)"
          },
          {
            "name": "index_OrderItem_idOrder",
            "unique": false,
            "columnNames": [
              "idOrder"
            ],
            "createSql": "CREATE  INDEX `index_OrderItem_idOrder` ON `${TABLE_NAME}` (`idOrder`)"
          }
        ],
        "foreignKeys": [
          {
            "table": "Order",
            "onDelete": "NO ACTION",
            "onUpdate": "CASCADE",
            "columns": [
              "idOrder"
            ],
            "referencedColumns": [
              "idOrder"
            ]
          },
          {
            "table": "Product",
            "onDelete": "NO ACTION",
            "onUpdate": "CASCADE",
            "columns": [
              "idProduct"
            ],
            "referencedColumns": [
              "idProduct"
            ]
          },
          {
            "table": "Customer",
            "onDelete": "NO ACTION",
            "onUpdate": "CASCADE",
            "columns": [
              "idCustomer"
            ],
            "referencedColumns": [
              "idCustomer"
            ]
          }
        ]
      },
      {
        "tableName": "Product",
        "createSql": "CREATE TABLE IF NOT EXISTS `${TABLE_NAME}` (`idProduct` INTEGER PRIMARY KEY AUTOINCREMENT, `name` TEXT NOT NULL, `price` INTEGER NOT NULL, `imagePath` TEXT NOT NULL, `createdAt` TEXT NOT NULL, `updatedAt` TEXT NOT NULL)",
        "fields": [
          {
            "fieldPath": "idProduct",
            "columnName": "idProduct",
            "affinity": "INTEGER",
            "notNull": false
          },
          {
            "fieldPath": "name",
            "columnName": "name",
            "affinity": "TEXT",
            "notNull": true
          },
          {
            "fieldPath": "price",
            "columnName": "price",
            "affinity": "INTEGER",
            "notNull": true
          },
          {
            "fieldPath": "imagePath",
            "columnName": "imagePath",
            "affinity": "TEXT",
            "notNull": true
          },
          {
            "fieldPath": "createdAt",
            "columnName": "createdAt",
            "affinity": "TEXT",
            "notNull": true
          },
          {
            "fieldPath": "updatedAt",
            "columnName": "updatedAt",
            "affinity": "TEXT",
            "notNull": true
          }
        ],
        "primaryKey": {
          "columnNames": [
            "idProduct"
          ],
          "autoGenerate": true
        },
        "indices": [],
        "foreignKeys": []
      },
      {
        "tableName": "User",
        "createSql": "CREATE TABLE IF NOT EXISTS `${TABLE_NAME}` (`idUser` INTEGER NOT NULL, `name` TEXT NOT NULL, `role` INTEGER NOT NULL, `pin` TEXT NOT NULL, `createdAt` TEXT NOT NULL, `updatedAt` TEXT NOT NULL, PRIMARY KEY(`idUser`))",
        "fields": [
          {
            "fieldPath": "idUser",
            "columnName": "idUser",
            "affinity": "INTEGER",
            "notNull": true
          },
          {
            "fieldPath": "name",
            "columnName": "name",
            "affinity": "TEXT",
            "notNull": true
          },
          {
            "fieldPath": "role",
            "columnName": "role",
            "affinity": "INTEGER",
            "notNull": true
          },
          {
            "fieldPath": "pin",
            "columnName": "pin",
            "affinity": "TEXT",
            "notNull": true
          },
          {
            "fieldPath": "createdAt",
            "columnName": "createdAt",
            "affinity": "TEXT",
            "notNull": true
          },
          {
            "fieldPath": "updatedAt",
            "columnName": "updatedAt",
            "affinity": "TEXT",
            "notNull": true
          }
        ],
        "primaryKey": {
          "columnNames": [
            "idUser"
          ],
          "autoGenerate": false
        },
        "indices": [],
        "foreignKeys": []
      },
      {
        "tableName": "CartItem",
        "createSql": "CREATE TABLE IF NOT EXISTS `${TABLE_NAME}` (`idCartItem` INTEGER, `idProduct` INTEGER NOT NULL, `quantity` INTEGER NOT NULL, PRIMARY KEY(`idCartItem`))",
        "fields": [
          {
            "fieldPath": "idCartItem",
            "columnName": "idCartItem",
            "affinity": "INTEGER",
            "notNull": false
          },
          {
            "fieldPath": "idProduct",
            "columnName": "idProduct",
            "affinity": "INTEGER",
            "notNull": true
          },
          {
            "fieldPath": "quantity",
            "columnName": "quantity",
            "affinity": "INTEGER",
            "notNull": true
          }
        ],
        "primaryKey": {
          "columnNames": [
            "idCartItem"
          ],
          "autoGenerate": false
        },
        "indices": [],
        "foreignKeys": []
      }
    ],
    "setupQueries": [
      "CREATE TABLE IF NOT EXISTS room_master_table (id INTEGER PRIMARY KEY,identity_hash TEXT)",
      "INSERT OR REPLACE INTO room_master_table (id,identity_hash) VALUES(42, \"9aafc2131267ec67fa1d6c8c49980444\")"
    ]
  }
}