{
  "formatVersion": 1,
  "database": {
    "version": 7,
    "identityHash": "f2a6fecef22394092037462b5e9b03ec",
    "entities": [
      {
        "tableName": "Customer",
        "createSql": "CREATE TABLE IF NOT EXISTS `${TABLE_NAME}` (`idCustomer` INTEGER PRIMARY KEY AUTOINCREMENT NOT NULL, `name` TEXT NOT NULL, `phoneNumber` TEXT NOT NULL, `createdAt` TEXT NOT NULL, `updatedAt` TEXT NOT NULL)",
        "fields": [
          {
            "fieldPath": "idCustomer",
            "columnName": "idCustomer",
            "affinity": "INTEGER",
            "notNull": true
          },
          {
            "fieldPath": "name",
            "columnName": "name",
            "affinity": "TEXT",
            "notNull": true
          },
          {
            "fieldPath": "phoneNumber",
            "columnName": "phoneNumber",
            "affinity": "TEXT",
            "notNull": true
          },
          {
            "fieldPath": "createdAt",
            "columnName": "createdAt",
            "affinity": "TEXT",
            "notNull": true
          },
          {
            "fieldPath": "updatedAt",
            "columnName": "updatedAt",
            "affinity": "TEXT",
            "notNull": true
          }
        ],
        "primaryKey": {
          "columnNames": [
            "idCustomer"
          ],
          "autoGenerate": true
        },
        "indices": [],
        "foreignKeys": []
      },
      {
        "tableName": "Order",
        "createSql": "CREATE TABLE IF NOT EXISTS `${TABLE_NAME}` (`idOrder` INTEGER PRIMARY KEY AUTOINCREMENT, `idCustomer` INTEGER, `idUser` INTEGER, `idStatus` INTEGER, `tax` REAL NOT NULL, `totalPayAmount` INTEGER NOT NULL, `actualPayAmount` INTEGER NOT NULL, `createdAt` TEXT NOT NULL, `updatedAt` TEXT NOT NULL, FOREIGN KEY(`idCustomer`) REFERENCES `Customer`(`idCustomer`) ON UPDATE CASCADE ON DELETE SET NULL , FOREIGN KEY(`idStatus`) REFERENCES `OrderStatus`(`idStatus`) ON UPDATE CASCADE ON DELETE SET NULL )",
        "fields": [
          {
            "fieldPath": "idOrder",
            "columnName": "idOrder",
            "affinity": "INTEGER",
            "notNull": false
          },
          {
            "fieldPath": "idCustomer",
            "columnName": "idCustomer",
            "affinity": "INTEGER",
            "notNull": false
          },
          {
            "fieldPath": "idUser",
            "columnName": "idUser",
            "affinity": "INTEGER",
            "notNull": false
          },
          {
            "fieldPath": "idStatus",
            "columnName": "idStatus",
            "affinity": "INTEGER",
            "notNull": false
          },
          {
            "fieldPath": "tax",
            "columnName": "tax",
            "affinity": "REAL",
            "notNull": true
          },
          {
            "fieldPath": "totalPayAmount",
            "columnName": "totalPayAmount",
            "affinity": "INTEGER",
            "notNull": true
          },
          {
            "fieldPath": "actualPayAmount",
            "columnName": "actualPayAmount",
            "affinity": "INTEGER",
            "notNull": true
          },
          {
            "fieldPath": "createdAt",
            "columnName": "createdAt",
            "affinity": "TEXT",
            "notNull": true
          },
          {
            "fieldPath": "updatedAt",
            "columnName": "updatedAt",
            "affinity": "TEXT",
            "notNull": true
          }
        ],
        "primaryKey": {
          "columnNames": [
            "idOrder"
          ],
          "autoGenerate": true
        },
        "indices": [
          {
            "name": "index_Order_idCustomer",
            "unique": false,
            "columnNames": [
              "idCustomer"
            ],
            "createSql": "CREATE  INDEX `index_Order_idCustomer` ON `${TABLE_NAME}` (`idCustomer`)"
          },
          {
            "name": "index_Order_idStatus",
            "unique": false,
            "columnNames": [
              "idStatus"
            ],
            "createSql": "CREATE  INDEX `index_Order_idStatus` ON `${TABLE_NAME}` (`idStatus`)"
          }
        ],
        "foreignKeys": [
          {
            "table": "Customer",
            "onDelete": "SET NULL",
            "onUpdate": "CASCADE",
            "columns": [
              "idCustomer"
            ],
            "referencedColumns": [
              "idCustomer"
            ]
          },
          {
            "table": "OrderStatus",
            "onDelete": "SET NULL",
            "onUpdate": "CASCADE",
            "columns": [
              "idStatus"
            ],
            "referencedColumns": [
              "idStatus"
            ]
          }
        ]
      },
      {
        "tableName": "OrderItem",
        "createSql": "CREATE TABLE IF NOT EXISTS `${TABLE_NAME}` (`idOrderItem` INTEGER PRIMARY KEY AUTOINCREMENT, `idOrder` INTEGER, `name` TEXT NOT NULL, `quantity` INTEGER NOT NULL, `price` INTEGER NOT NULL, `createdAt` TEXT NOT NULL, `updatedAt` TEXT NOT NULL, FOREIGN KEY(`idOrder`) REFERENCES `Order`(`idOrder`) ON UPDATE CASCADE ON DELETE CASCADE )",
        "fields": [
          {
            "fieldPath": "idOrderItem",
            "columnName": "idOrderItem",
            "affinity": "INTEGER",
            "notNull": false
          },
          {
            "fieldPath": "idOrder",
            "columnName": "idOrder",
            "affinity": "INTEGER",
            "notNull": false
          },
          {
            "fieldPath": "name",
            "columnName": "name",
            "affinity": "TEXT",
            "notNull": true
          },
          {
            "fieldPath": "quantity",
            "columnName": "quantity",
            "affinity": "INTEGER",
            "notNull": true
          },
          {
            "fieldPath": "price",
            "columnName": "price",
            "affinity": "INTEGER",
            "notNull": true
          },
          {
            "fieldPath": "createdAt",
            "columnName": "createdAt",
            "affinity": "TEXT",
            "notNull": true
          },
          {
            "fieldPath": "updatedAt",
            "columnName": "updatedAt",
            "affinity": "TEXT",
            "notNull": true
          }
        ],
        "primaryKey": {
          "columnNames": [
            "idOrderItem"
          ],
          "autoGenerate": true
        },
        "indices": [
          {
            "name": "index_OrderItem_idOrder",
            "unique": false,
            "columnNames": [
              "idOrder"
            ],
            "createSql": "CREATE  INDEX `index_OrderItem_idOrder` ON `${TABLE_NAME}` (`idOrder`)"
          }
        ],
        "foreignKeys": [
          {
            "table": "Order",
            "onDelete": "CASCADE",
            "onUpdate": "CASCADE",
            "columns": [
              "idOrder"
            ],
            "referencedColumns": [
              "idOrder"
            ]
          }
        ]
      },
      {
        "tableName": "Printer",
        "createSql": "CREATE TABLE IF NOT EXISTS `${TABLE_NAME}` (`idPrinter` INTEGER PRIMARY KEY AUTOINCREMENT, `name` TEXT NOT NULL, `address` TEXT NOT NULL, `createdAt` TEXT NOT NULL, `updatedAt` TEXT NOT NULL)",
        "fields": [
          {
            "fieldPath": "idPrinter",
            "columnName": "idPrinter",
            "affinity": "INTEGER",
            "notNull": false
          },
          {
            "fieldPath": "name",
            "columnName": "name",
            "affinity": "TEXT",
            "notNull": true
          },
          {
            "fieldPath": "address",
            "columnName": "address",
            "affinity": "TEXT",
            "notNull": true
          },
          {
            "fieldPath": "createdAt",
            "columnName": "createdAt",
            "affinity": "TEXT",
            "notNull": true
          },
          {
            "fieldPath": "updatedAt",
            "columnName": "updatedAt",
            "affinity": "TEXT",
            "notNull": true
          }
        ],
        "primaryKey": {
          "columnNames": [
            "idPrinter"
          ],
          "autoGenerate": true
        },
        "indices": [],
        "foreignKeys": []
      },
      {
        "tableName": "Product",
        "createSql": "CREATE TABLE IF NOT EXISTS `${TABLE_NAME}` (`idProduct` INTEGER PRIMARY KEY AUTOINCREMENT, `name` TEXT NOT NULL, `price` INTEGER NOT NULL, `imagePath` TEXT NOT NULL, `createdAt` TEXT NOT NULL, `updatedAt` TEXT NOT NULL)",
        "fields": [
          {
            "fieldPath": "idProduct",
            "columnName": "idProduct",
            "affinity": "INTEGER",
            "notNull": false
          },
          {
            "fieldPath": "name",
            "columnName": "name",
            "affinity": "TEXT",
            "notNull": true
          },
          {
            "fieldPath": "price",
            "columnName": "price",
            "affinity": "INTEGER",
            "notNull": true
          },
          {
            "fieldPath": "imagePath",
            "columnName": "imagePath",
            "affinity": "TEXT",
            "notNull": true
          },
          {
            "fieldPath": "createdAt",
            "columnName": "createdAt",
            "affinity": "TEXT",
            "notNull": true
          },
          {
            "fieldPath": "updatedAt",
            "columnName": "updatedAt",
            "affinity": "TEXT",
            "notNull": true
          }
        ],
        "primaryKey": {
          "columnNames": [
            "idProduct"
          ],
          "autoGenerate": true
        },
        "indices": [],
        "foreignKeys": []
      },
      {
        "tableName": "User",
        "createSql": "CREATE TABLE IF NOT EXISTS `${TABLE_NAME}` (`idUser` INTEGER NOT NULL, `name` TEXT NOT NULL, `role` INTEGER NOT NULL, `pin` TEXT NOT NULL, `createdAt` TEXT NOT NULL, `updatedAt` TEXT NOT NULL, PRIMARY KEY(`idUser`))",
        "fields": [
          {
            "fieldPath": "idUser",
            "columnName": "idUser",
            "affinity": "INTEGER",
            "notNull": true
          },
          {
            "fieldPath": "name",
            "columnName": "name",
            "affinity": "TEXT",
            "notNull": true
          },
          {
            "fieldPath": "role",
            "columnName": "role",
            "affinity": "INTEGER",
            "notNull": true
          },
          {
            "fieldPath": "pin",
            "columnName": "pin",
            "affinity": "TEXT",
            "notNull": true
          },
          {
            "fieldPath": "createdAt",
            "columnName": "createdAt",
            "affinity": "TEXT",
            "notNull": true
          },
          {
            "fieldPath": "updatedAt",
            "columnName": "updatedAt",
            "affinity": "TEXT",
            "notNull": true
          }
        ],
        "primaryKey": {
          "columnNames": [
            "idUser"
          ],
          "autoGenerate": false
        },
        "indices": [],
        "foreignKeys": []
      },
      {
        "tableName": "CartItem",
        "createSql": "CREATE TABLE IF NOT EXISTS `${TABLE_NAME}` (`idCartItem` INTEGER PRIMARY KEY AUTOINCREMENT, `idProduct` INTEGER, `quantity` INTEGER NOT NULL, FOREIGN KEY(`idProduct`) REFERENCES `Product`(`idProduct`) ON UPDATE CASCADE ON DELETE CASCADE )",
        "fields": [
          {
            "fieldPath": "idCartItem",
            "columnName": "idCartItem",
            "affinity": "INTEGER",
            "notNull": false
          },
          {
            "fieldPath": "idProduct",
            "columnName": "idProduct",
            "affinity": "INTEGER",
            "notNull": false
          },
          {
            "fieldPath": "quantity",
            "columnName": "quantity",
            "affinity": "INTEGER",
            "notNull": true
          }
        ],
        "primaryKey": {
          "columnNames": [
            "idCartItem"
          ],
          "autoGenerate": true
        },
        "indices": [
          {
            "name": "index_CartItem_idProduct",
            "unique": false,
            "columnNames": [
              "idProduct"
            ],
            "createSql": "CREATE  INDEX `index_CartItem_idProduct` ON `${TABLE_NAME}` (`idProduct`)"
          }
        ],
        "foreignKeys": [
          {
            "table": "Product",
            "onDelete": "CASCADE",
            "onUpdate": "CASCADE",
            "columns": [
              "idProduct"
            ],
            "referencedColumns": [
              "idProduct"
            ]
          }
        ]
      },
      {
        "tableName": "CustomLabelName",
        "createSql": "CREATE TABLE IF NOT EXISTS `${TABLE_NAME}` (`idCustomLabelName` INTEGER PRIMARY KEY AUTOINCREMENT, `name` TEXT NOT NULL, `createdAt` TEXT NOT NULL, `updatedAt` TEXT NOT NULL)",
        "fields": [
          {
            "fieldPath": "idCustomLabelName",
            "columnName": "idCustomLabelName",
            "affinity": "INTEGER",
            "notNull": false
          },
          {
            "fieldPath": "name",
            "columnName": "name",
            "affinity": "TEXT",
            "notNull": true
          },
          {
            "fieldPath": "createdAt",
            "columnName": "createdAt",
            "affinity": "TEXT",
            "notNull": true
          },
          {
            "fieldPath": "updatedAt",
            "columnName": "updatedAt",
            "affinity": "TEXT",
            "notNull": true
          }
        ],
        "primaryKey": {
          "columnNames": [
            "idCustomLabelName"
          ],
          "autoGenerate": true
        },
        "indices": [],
        "foreignKeys": []
      },
      {
        "tableName": "CustomLabelValue",
        "createSql": "CREATE TABLE IF NOT EXISTS `${TABLE_NAME}` (`idCustomLabelValue` INTEGER PRIMARY KEY AUTOINCREMENT, `idCustomLabelName` INTEGER, `value` TEXT NOT NULL, `createdAt` TEXT NOT NULL, `updatedAt` TEXT NOT NULL, FOREIGN KEY(`idCustomLabelName`) REFERENCES `CustomLabelName`(`idCustomLabelName`) ON UPDATE CASCADE ON DELETE CASCADE )",
        "fields": [
          {
            "fieldPath": "idCustomLabelValue",
            "columnName": "idCustomLabelValue",
            "affinity": "INTEGER",
            "notNull": false
          },
          {
            "fieldPath": "idCustomLabelName",
            "columnName": "idCustomLabelName",
            "affinity": "INTEGER",
            "notNull": false
          },
          {
            "fieldPath": "value",
            "columnName": "value",
            "affinity": "TEXT",
            "notNull": true
          },
          {
            "fieldPath": "createdAt",
            "columnName": "createdAt",
            "affinity": "TEXT",
            "notNull": true
          },
          {
            "fieldPath": "updatedAt",
            "columnName": "updatedAt",
            "affinity": "TEXT",
            "notNull": true
          }
        ],
        "primaryKey": {
          "columnNames": [
            "idCustomLabelValue"
          ],
          "autoGenerate": true
        },
        "indices": [
          {
            "name": "index_CustomLabelValue_idCustomLabelName",
            "unique": false,
            "columnNames": [
              "idCustomLabelName"
            ],
            "createSql": "CREATE  INDEX `index_CustomLabelValue_idCustomLabelName` ON `${TABLE_NAME}` (`idCustomLabelName`)"
          }
        ],
        "foreignKeys": [
          {
            "table": "CustomLabelName",
            "onDelete": "CASCADE",
            "onUpdate": "CASCADE",
            "columns": [
              "idCustomLabelName"
            ],
            "referencedColumns": [
              "idCustomLabelName"
            ]
          }
        ]
      },
      {
        "tableName": "OrderCustomLabel",
        "createSql": "CREATE TABLE IF NOT EXISTS `${TABLE_NAME}` (`idOrderCustomLabel` INTEGER PRIMARY KEY AUTOINCREMENT, `idCustomLabelValue` INTEGER, `idOrder` INTEGER, `createdAt` TEXT NOT NULL, `updatedAt` TEXT NOT NULL, FOREIGN KEY(`idCustomLabelValue`) REFERENCES `CustomLabelValue`(`idCustomLabelValue`) ON UPDATE CASCADE ON DELETE CASCADE , FOREIGN KEY(`idOrder`) REFERENCES `Order`(`idOrder`) ON UPDATE CASCADE ON DELETE CASCADE )",
        "fields": [
          {
            "fieldPath": "idOrderCustomLabel",
            "columnName": "idOrderCustomLabel",
            "affinity": "INTEGER",
            "notNull": false
          },
          {
            "fieldPath": "idCustomLabelValue",
            "columnName": "idCustomLabelValue",
            "affinity": "INTEGER",
            "notNull": false
          },
          {
            "fieldPath": "idOrder",
            "columnName": "idOrder",
            "affinity": "INTEGER",
            "notNull": false
          },
          {
            "fieldPath": "createdAt",
            "columnName": "createdAt",
            "affinity": "TEXT",
            "notNull": true
          },
          {
            "fieldPath": "updatedAt",
            "columnName": "updatedAt",
            "affinity": "TEXT",
            "notNull": true
          }
        ],
        "primaryKey": {
          "columnNames": [
            "idOrderCustomLabel"
          ],
          "autoGenerate": true
        },
        "indices": [
          {
            "name": "index_OrderCustomLabel_idCustomLabelValue",
            "unique": false,
            "columnNames": [
              "idCustomLabelValue"
            ],
            "createSql": "CREATE  INDEX `index_OrderCustomLabel_idCustomLabelValue` ON `${TABLE_NAME}` (`idCustomLabelValue`)"
          },
          {
            "name": "index_OrderCustomLabel_idOrder",
            "unique": false,
            "columnNames": [
              "idOrder"
            ],
            "createSql": "CREATE  INDEX `index_OrderCustomLabel_idOrder` ON `${TABLE_NAME}` (`idOrder`)"
          }
        ],
        "foreignKeys": [
          {
            "table": "CustomLabelValue",
            "onDelete": "CASCADE",
            "onUpdate": "CASCADE",
            "columns": [
              "idCustomLabelValue"
            ],
            "referencedColumns": [
              "idCustomLabelValue"
            ]
          },
          {
            "table": "Order",
            "onDelete": "CASCADE",
            "onUpdate": "CASCADE",
            "columns": [
              "idOrder"
            ],
            "referencedColumns": [
              "idOrder"
            ]
          }
        ]
      },
      {
        "tableName": "OrderStatus",
        "createSql": "CREATE TABLE IF NOT EXISTS `${TABLE_NAME}` (`idStatus` INTEGER PRIMARY KEY AUTOINCREMENT, `name` INTEGER NOT NULL)",
        "fields": [
          {
            "fieldPath": "idStatus",
            "columnName": "idStatus",
            "affinity": "INTEGER",
            "notNull": false
          },
          {
            "fieldPath": "name",
            "columnName": "name",
            "affinity": "INTEGER",
            "notNull": true
          }
        ],
        "primaryKey": {
          "columnNames": [
            "idStatus"
          ],
          "autoGenerate": true
        },
        "indices": [],
        "foreignKeys": []
      },
      {
        "tableName": "ProductTag",
        "createSql": "CREATE TABLE IF NOT EXISTS `${TABLE_NAME}` (`idProductTag` INTEGER PRIMARY KEY AUTOINCREMENT, `idTag` INTEGER NOT NULL, `idProduct` INTEGER NOT NULL, `createdAt` TEXT NOT NULL, `updatedAt` TEXT NOT NULL, FOREIGN KEY(`idTag`) REFERENCES `Tag`(`idTag`) ON UPDATE CASCADE ON DELETE CASCADE , FOREIGN KEY(`idProduct`) REFERENCES `Product`(`idProduct`) ON UPDATE CASCADE ON DELETE CASCADE )",
        "fields": [
          {
            "fieldPath": "idProductTag",
            "columnName": "idProductTag",
            "affinity": "INTEGER",
            "notNull": false
          },
          {
            "fieldPath": "idTag",
            "columnName": "idTag",
            "affinity": "INTEGER",
            "notNull": true
          },
          {
            "fieldPath": "idProduct",
            "columnName": "idProduct",
            "affinity": "INTEGER",
            "notNull": true
          },
          {
            "fieldPath": "createdAt",
            "columnName": "createdAt",
            "affinity": "TEXT",
            "notNull": true
          },
          {
            "fieldPath": "updatedAt",
            "columnName": "updatedAt",
            "affinity": "TEXT",
            "notNull": true
          }
        ],
        "primaryKey": {
          "columnNames": [
            "idProductTag"
          ],
          "autoGenerate": true
        },
        "indices": [
          {
            "name": "index_ProductTag_idTag",
            "unique": false,
            "columnNames": [
              "idTag"
            ],
            "createSql": "CREATE  INDEX `index_ProductTag_idTag` ON `${TABLE_NAME}` (`idTag`)"
          },
          {
            "name": "index_ProductTag_idProduct",
            "unique": false,
            "columnNames": [
              "idProduct"
            ],
            "createSql": "CREATE  INDEX `index_ProductTag_idProduct` ON `${TABLE_NAME}` (`idProduct`)"
          }
        ],
        "foreignKeys": [
          {
            "table": "Tag",
            "onDelete": "CASCADE",
            "onUpdate": "CASCADE",
            "columns": [
              "idTag"
            ],
            "referencedColumns": [
              "idTag"
            ]
          },
          {
            "table": "Product",
            "onDelete": "CASCADE",
            "onUpdate": "CASCADE",
            "columns": [
              "idProduct"
            ],
            "referencedColumns": [
              "idProduct"
            ]
          }
        ]
      },
      {
        "tableName": "Tag",
        "createSql": "CREATE TABLE IF NOT EXISTS `${TABLE_NAME}` (`idTag` INTEGER PRIMARY KEY AUTOINCREMENT, `value` TEXT NOT NULL, `createdAt` TEXT NOT NULL, `updatedAt` TEXT NOT NULL)",
        "fields": [
          {
            "fieldPath": "idTag",
            "columnName": "idTag",
            "affinity": "INTEGER",
            "notNull": false
          },
          {
            "fieldPath": "value",
            "columnName": "value",
            "affinity": "TEXT",
            "notNull": true
          },
          {
            "fieldPath": "createdAt",
            "columnName": "createdAt",
            "affinity": "TEXT",
            "notNull": true
          },
          {
            "fieldPath": "updatedAt",
            "columnName": "updatedAt",
            "affinity": "TEXT",
            "notNull": true
          }
        ],
        "primaryKey": {
          "columnNames": [
            "idTag"
          ],
          "autoGenerate": true
        },
        "indices": [],
        "foreignKeys": []
      }
    ],
    "views": [],
    "setupQueries": [
      "CREATE TABLE IF NOT EXISTS room_master_table (id INTEGER PRIMARY KEY,identity_hash TEXT)",
      "INSERT OR REPLACE INTO room_master_table (id,identity_hash) VALUES(42, \"f2a6fecef22394092037462b5e9b03ec\")"
    ]
  }
}